{
    "id": "0b07939b-f1cc-45eb-bfbc-0bfa1b190a6b",
    "schema": "https://metadata.datadrivendiscovery.org/schemas/v0/pipeline.json",
    "created": "2019-06-06T22:14:00.863478Z",
    "inputs": [
        {
            "name": "inputs"
        }
    ],
    "outputs": [
        {
            "data": "steps.0.produce",
            "name": "results"
        }
    ],
    "steps": [
        {
            "type": "PRIMITIVE",
            "primitive": {
                "id": "fde90b15-155a-3c2a-866c-4a19354cf0c7",
                "version": "0.1.0",
                "python_path": "d3m.primitives.vertex_nomination.spectral_graph_clustering.JHU",
                "name": "jhu.sgc",
                "digest": "e430417515eafcfb93ac57f6f11e4a60a5831ed14bf515a87e826c1e5df62a55"
            },
            "arguments": {
                "inputs": {
                    "type": "CONTAINER",
                    "data": "inputs.0"
                }
            },
            "outputs": [
                {
                    "id": "produce"
                }
            ]
        }
    ],
    "digest": "b5bafb0016c5630ee84ab4a16aac24a6f6d2e089507eee2500e93804f4579816"
}