{
    "id": "dfa06f04-714d-4f06-85ca-bee2648eef6f",
    "schema": "https://metadata.datadrivendiscovery.org/schemas/v0/pipeline.json",
    "created": "2020-06-04T20:21:42.482695Z",
    "inputs": [
        {
            "name": "inputs"
        }
    ],
    "outputs": [
        {
            "data": "steps.3.produce",
            "name": "Predictions"
        }
    ],
    "steps": [
        {
            "type": "PRIMITIVE",
            "primitive": {
                "id": "cb192a83-63e2-4075-bab9-e6ba1a8365b6",
                "version": "0.1.0",
                "python_path": "d3m.primitives.data_transformation.load_graphs.JHU",
                "name": "Extract a list of Graphs from a Dataset",
                "digest": "917fabbc393b88ae11fef16d80bd6cce99185b348eed4ca2f046c7b447523ed4"
            },
            "arguments": {
                "inputs": {
                    "type": "CONTAINER",
                    "data": "inputs.0"
                }
            },
            "outputs": [
                {
                    "id": "produce"
                }
            ]
        },
        {
            "type": "PRIMITIVE",
            "primitive": {
                "id": "32fec24f-6861-4a4c-88f3-d4ec2bc1b486",
                "version": "0.1.0",
                "python_path": "d3m.primitives.data_preprocessing.largest_connected_component.JHU",
                "name": "jhu.lcc",
                "digest": "5623b40bc255f44e0bc8e2c0c6fdb9599faa9f9806923b1e53f68db3baec6c07"
            },
            "arguments": {
                "inputs": {
                    "type": "CONTAINER",
                    "data": "steps.0.produce"
                }
            },
            "outputs": [
                {
                    "id": "produce"
                }
            ]
        },
        {
            "type": "PRIMITIVE",
            "primitive": {
                "id": "b940ccbd-9e9b-3166-af50-210bfd79251b",
                "version": "0.1.0",
                "python_path": "d3m.primitives.data_transformation.adjacency_spectral_embedding.JHU",
                "name": "jhu.ase",
                "digest": "e8e4387b720fe06964f4799a1766fb75f813cdb5e88675a5c4d53c05a533d0e8"
            },
            "arguments": {
                "inputs": {
                    "type": "CONTAINER",
                    "data": "steps.1.produce"
                }
            },
            "outputs": [
                {
                    "id": "produce"
                }
            ],
            "hyperparams": {
                "max_dimension": {
                    "type": "VALUE",
                    "data": 5
                },
                "use_attributes": {
                    "type": "VALUE",
                    "data": true
                }
            }
        },
        {
            "type": "PRIMITIVE",
            "primitive": {
                "id": "c9d5da5d-0520-468e-92df-bd3a85bb4fac",
                "version": "0.1.0",
                "python_path": "d3m.primitives.classification.gaussian_classification.JHU",
                "name": "jhu.gclass",
                "digest": "0351a000edf6b6405cb44bfaad0c381d6f7e7cdc8509b16d38d28b5dab84212d"
            },
            "arguments": {
                "inputs": {
                    "type": "CONTAINER",
                    "data": "steps.2.produce"
                }
            },
            "outputs": [
                {
                    "id": "produce"
                }
            ]
        }
    ],
    "digest": "1425ba38f0d4bbc8f4b4d5c0f90481d9b07cb99256781c5f1a4f303ae79d33b7"
}