{
    "created": "2020-01-25T02:12:04.357119Z",
    "digest": "aa8ae383abc1380ea6c7156a86da8350db5be3e0037825aa705202c6fa07c07b",
    "id": "9ea39abe-b164-4eff-918e-c364ce87d167",
    "inputs": [
        {
            "name": "inputs"
        }
    ],
    "outputs": [
        {
            "data": "steps.6.produce",
            "name": "output predictions"
        }
    ],
    "schema": "https://metadata.datadrivendiscovery.org/schemas/v0/pipeline.json",
    "steps": [
        {
            "arguments": {
                "inputs": {
                    "data": "inputs.0",
                    "type": "CONTAINER"
                }
            },
            "outputs": [
                {
                    "id": "produce"
                }
            ],
            "primitive": {
                "digest": "2029603954acb505cb894594ca20a91af5f2b7bba931553f12fad544071ec911",
                "id": "4b42ce1e-9b98-4a25-b68e-fad13311eb65",
                "name": "Extract a DataFrame from a Dataset",
                "python_path": "d3m.primitives.data_transformation.dataset_to_dataframe.Common",
                "version": "0.3.0"
            },
            "type": "PRIMITIVE"
        },
        {
            "arguments": {
                "inputs": {
                    "data": "steps.0.produce",
                    "type": "CONTAINER"
                }
            },
            "hyperparams": {
                "columns": {
                    "data": [
                        1,
                        2
                    ],
                    "type": "VALUE"
                }
            },
            "outputs": [
                {
                    "id": "produce"
                }
            ],
            "primitive": {
                "digest": "101bb426df45a58c1b5f57a0c477f6535dc217fcf2334930e9c65253b1876722",
                "id": "81d7e261-e25b-4721-b091-a31cd46e99ae",
                "name": "Extracts columns",
                "python_path": "d3m.primitives.data_transformation.extract_columns.Common",
                "version": "0.1.0"
            },
            "type": "PRIMITIVE"
        },
        {
            "arguments": {
                "inputs": {
                    "data": "steps.1.produce",
                    "type": "CONTAINER"
                }
            },
            "hyperparams": {
                "convert": {
                    "data": true,
                    "type": "VALUE"
                },
                "to_type": {
                    "data": {
                        "encoding": "pickle",
                        "value": "gANjYnVpbHRpbnMKaW50CnEALg=="
                    },
                    "type": "VALUE"
                }
            },
            "outputs": [
                {
                    "id": "produce"
                }
            ],
            "primitive": {
                "digest": "79e8f4055ae09659a8f5c9cea90bae7637d20fb736496e7540073af43ed20d3e",
                "id": "196152a7-a873-4676-bbde-95627f4b5306",
                "name": "Preprocessing for categorical columns",
                "python_path": "d3m.primitives.column_parser.preprocess_categorical_columns.Cornell",
                "version": "v0.1.1"
            },
            "type": "PRIMITIVE"
        },
        {
            "arguments": {
                "inputs": {
                    "data": "steps.0.produce",
                    "type": "CONTAINER"
                }
            },
            "hyperparams": {
                "columns": {
                    "data": [
                        3
                    ],
                    "type": "VALUE"
                }
            },
            "outputs": [
                {
                    "id": "produce"
                }
            ],
            "primitive": {
                "digest": "101bb426df45a58c1b5f57a0c477f6535dc217fcf2334930e9c65253b1876722",
                "id": "81d7e261-e25b-4721-b091-a31cd46e99ae",
                "name": "Extracts columns",
                "python_path": "d3m.primitives.data_transformation.extract_columns.Common",
                "version": "0.1.0"
            },
            "type": "PRIMITIVE"
        },
        {
            "arguments": {
                "inputs": {
                    "data": "steps.3.produce",
                    "type": "CONTAINER"
                }
            },
            "hyperparams": {
                "convert": {
                    "data": false,
                    "type": "VALUE"
                }
            },
            "outputs": [
                {
                    "id": "produce"
                }
            ],
            "primitive": {
                "digest": "79e8f4055ae09659a8f5c9cea90bae7637d20fb736496e7540073af43ed20d3e",
                "id": "196152a7-a873-4676-bbde-95627f4b5306",
                "name": "Preprocessing for categorical columns",
                "python_path": "d3m.primitives.column_parser.preprocess_categorical_columns.Cornell",
                "version": "v0.1.1"
            },
            "type": "PRIMITIVE"
        },
        {
            "arguments": {
                "inputs": {
                    "data": "steps.2.produce",
                    "type": "CONTAINER"
                },
                "outputs": {
                    "data": "steps.4.produce",
                    "type": "CONTAINER"
                }
            },
            "hyperparams": {
                "alpha": {
                    "data": 1,
                    "type": "VALUE"
                },
                "beta": {
                    "data": 1,
                    "type": "VALUE"
                },
                "d": {
                    "data": 100,
                    "type": "VALUE"
                },
                "maxiter": {
                    "data": 1000,
                    "type": "VALUE"
                }
            },
            "outputs": [
                {
                    "id": "produce"
                }
            ],
            "primitive": {
                "digest": "a54b0c5be81646265851eb96fb7d2d527cf9bc7fae0da5b2671032542b3858a6",
                "id": "e6ee30fa-af68-4bfe-9234-5ca7e7ac8e93",
                "name": "Matrix Completion via Sparse Factorization",
                "python_path": "d3m.primitives.collaborative_filtering.high_rank_imputer.Cornell",
                "version": "v0.1.1"
            },
            "type": "PRIMITIVE"
        },
        {
            "arguments": {
                "inputs": {
                    "data": "steps.5.produce",
                    "type": "CONTAINER"
                },
                "reference": {
                    "data": "steps.0.produce",
                    "type": "CONTAINER"
                }
            },
            "outputs": [
                {
                    "id": "produce"
                }
            ],
            "primitive": {
                "digest": "4f49e6abf7eb7ea3247eeb48f7b2fdd5fdb42f7ecc734fb3e37efada43895c6d",
                "id": "8d38b340-f83f-4877-baaa-162f8e551736",
                "name": "Construct pipeline predictions output",
                "python_path": "d3m.primitives.data_transformation.construct_predictions.Common",
                "version": "0.3.0"
            },
            "type": "PRIMITIVE"
        }
    ]
}