{
    "id": "422c040c-b8fe-45de-89c2-01d17118379d",
    "version": "0.1.0",
    "name": "Canonical Correlation Forests Regressor",
    "description": "Canonical Correlation Forests regression is a decision tree ensemble method. CCFs naturally\naccommodate multiple outputs, provide a similar computational complexity to random forests,\nand inherit their impressive robustness to the choice of input parameters.\nIt uses semantic types to determine which columns to operate on.\nCitation: https://arxiv.org/abs/1507.05444\n-------------\nInputs:  DataFrame of features of shape: NxM, where N = samples and M = features.\nOutputs: DataFrame containing the target column of shape Nx1 or denormalized dataset.\n-------------\n\nAttributes\n----------\nmetadata : PrimitiveMetadata\n    Primitive's metadata. Available as a class attribute.\nlogger : Logger\n    Primitive's logger. Available as a class attribute.\nhyperparams : Hyperparams\n    Hyperparams passed to the constructor.\nrandom_seed : int\n    Random seed passed to the constructor.\ndocker_containers : Dict[str, DockerContainer]\n    A dict mapping Docker image keys from primitive's metadata to (named) tuples containing\n    container's address under which the container is accessible by the primitive, and a\n    dict mapping exposed ports to ports on that address.\nvolumes : Dict[str, str]\n    A dict mapping volume keys from primitive's metadata to file and directory paths\n    where downloaded and extracted files are available to the primitive.\ntemporary_directory : str\n    An absolute path to a temporary directory a primitive can use to store any files\n    for the duration of the current pipeline run phase. Directory is automatically\n    cleaned up after the current pipeline run phase finishes.",
    "python_path": "d3m.primitives.regression.ccfs.UBC",
    "primitive_family": "REGRESSION",
    "algorithm_types": [
        "DECISION_TREE",
        "ENSEMBLE_LEARNING",
        "CANONICAL_CORRELATION_ANALYSIS"
    ],
    "source": {
        "name": "UBC",
        "contact": "mailto:tonyjos@ubc.cs.ca",
        "uris": [
            "https://github.com/plai-group/ubc_primitives.git"
        ]
    },
    "keywords": [
        "canonical correlation forests",
        "tree ensemble method",
        "decision tree"
    ],
    "installation": [
        {
            "type": "PIP",
            "package_uri": "git+https://github.com/plai-group/ubc_primitives.git@dfccdc276d3f2ed18a04b9bb69795b87505339a5#egg=ubc_primitives"
        }
    ],
    "hyperparams_to_tune": [
        "nTrees"
    ],
    "schema": "https://metadata.datadrivendiscovery.org/schemas/v0/primitive.json",
    "original_python_path": "primitives.regCCFS.ccfsReg.CanonicalCorrelationForestsRegressionPrimitive",
    "primitive_code": {
        "class_type_arguments": {
            "Inputs": "d3m.container.pandas.DataFrame",
            "Outputs": "d3m.container.pandas.DataFrame",
            "Params": "primitives.regCCFS.ccfsReg.Params",
            "Hyperparams": "primitives.regCCFS.ccfsReg.Hyperparams"
        },
        "interfaces_version": "2020.1.9",
        "interfaces": [
            "supervised_learning.SupervisedLearnerPrimitiveBase",
            "base.PrimitiveBase"
        ],
        "hyperparams": {
            "nTrees": {
                "type": "d3m.metadata.hyperparams.Hyperparameter",
                "default": 100,
                "structural_type": "int",
                "semantic_types": [
                    "https://metadata.datadrivendiscovery.org/types/TuningParameter"
                ],
                "description": "Number of trees to create."
            },
            "parallelprocessing": {
                "type": "d3m.metadata.hyperparams.UniformBool",
                "default": true,
                "structural_type": "bool",
                "semantic_types": [
                    "https://metadata.datadrivendiscovery.org/types/ControlParameter"
                ],
                "description": "Use multi-cpu processing."
            },
            "lambda_": {
                "type": "d3m.metadata.hyperparams.Enumeration",
                "default": "log",
                "structural_type": "str",
                "semantic_types": [
                    "https://metadata.datadrivendiscovery.org/types/ControlParameter"
                ],
                "description": "Number of features to subsample at each node",
                "values": [
                    "log",
                    "sqrt"
                ]
            },
            "splitCriterion": {
                "type": "d3m.metadata.hyperparams.Enumeration",
                "default": "mse",
                "structural_type": "str",
                "semantic_types": [
                    "https://metadata.datadrivendiscovery.org/types/TuningParameter"
                ],
                "description": "Split criterion/impurity measure to use.  Default is 'mse' for Regression.",
                "values": [
                    "mse"
                ]
            },
            "minPointsLeaf": {
                "type": "d3m.metadata.hyperparams.Hyperparameter",
                "default": 3,
                "structural_type": "int",
                "semantic_types": [
                    "https://metadata.datadrivendiscovery.org/types/ControlParameter"
                ],
                "description": "Minimum number of points allowed a leaf node for split to be permitted."
            },
            "bSepPred": {
                "type": "d3m.metadata.hyperparams.UniformBool",
                "default": false,
                "structural_type": "bool",
                "semantic_types": [
                    "https://metadata.datadrivendiscovery.org/types/ControlParameter"
                ],
                "description": "Whether to predict each class seperately as a multilabel classification problem (True) or treat classes within the same output as mutually exclusive (False)"
            },
            "taskWeights": {
                "type": "d3m.metadata.hyperparams.Enumeration",
                "default": "even",
                "structural_type": "str",
                "semantic_types": [
                    "https://metadata.datadrivendiscovery.org/types/ControlParameter"
                ],
                "description": "Weights to apply to each output task in calculating the gain.",
                "values": [
                    "even",
                    "uneven"
                ]
            },
            "bProjBoot": {
                "type": "d3m.metadata.hyperparams.UniformBool",
                "default": true,
                "structural_type": "bool",
                "semantic_types": [
                    "https://metadata.datadrivendiscovery.org/types/ControlParameter"
                ],
                "description": "Whether to use projection bootstrapping.  If set to default, then true unless lambda=D, i.e. we all features at each node.  In this case we resort to bagging instead of projection bootstrapping"
            },
            "bBagTrees": {
                "type": "d3m.metadata.hyperparams.UniformBool",
                "default": true,
                "structural_type": "bool",
                "semantic_types": [
                    "https://metadata.datadrivendiscovery.org/types/ControlParameter"
                ],
                "description": "Whether to use Breiman's bagging by training each tree on a bootstrap sample"
            },
            "projections": {
                "type": "d3m.metadata.hyperparams.Hyperparameter",
                "default": {
                    "CCA": true
                },
                "structural_type": "dict",
                "semantic_types": [
                    "https://metadata.datadrivendiscovery.org/types/ControlParameter"
                ],
                "description": "Whether to use projection bootstrapping.  If set to default, then true unless lambda=D, i.e. we all features at each node.  In this case we resort to bagging instead of projection bootstrapping"
            },
            "treeRotation": {
                "type": "d3m.metadata.hyperparams.Enumeration",
                "default": "none",
                "structural_type": "str",
                "semantic_types": [
                    "https://metadata.datadrivendiscovery.org/types/ControlParameter"
                ],
                "description": "Pre-rotation to be applied to each tree seperately before rotating.",
                "values": [
                    "none",
                    "pca",
                    "random",
                    "rotationForest"
                ]
            },
            "propTrain": {
                "type": "d3m.metadata.hyperparams.Bounded",
                "default": 1.0,
                "structural_type": "float",
                "semantic_types": [
                    "https://metadata.datadrivendiscovery.org/types/ControlParameter"
                ],
                "description": "Proportion of the data to train each tree on, but for large datasets it may be possible to only use a subset of the data for training each tree.",
                "lower": 0.1,
                "upper": 1.0,
                "lower_inclusive": true,
                "upper_inclusive": true
            },
            "epsilonCCA": {
                "type": "d3m.metadata.hyperparams.Hyperparameter",
                "default": 0.0001,
                "structural_type": "float",
                "semantic_types": [
                    "https://metadata.datadrivendiscovery.org/types/ControlParameter"
                ],
                "description": "Tolerance parameter for rank reduction during the CCA. It can be desirable to lower if the data has extreme correlation, in which this finite value could eliminate the true signal"
            },
            "mseErrorTolerance": {
                "type": "d3m.metadata.hyperparams.Hyperparameter",
                "default": 1e-06,
                "structural_type": "float",
                "semantic_types": [
                    "https://metadata.datadrivendiscovery.org/types/ControlParameter"
                ],
                "description": " When doing regression with mse splits, the node is made into a leaf if the mse (i.e. variance) of the data is less  than this tolerance times the mse of the full data set."
            },
            "maxDepthSplit": {
                "type": "d3m.metadata.hyperparams.Hyperparameter",
                "default": "stack",
                "structural_type": "str",
                "semantic_types": [
                    "https://metadata.datadrivendiscovery.org/types/ControlParameter"
                ],
                "description": "Maximum depth of a node when splitting is still allowed. When set to 'stack' this is set to the maximum value that prevents crashes (usually ~500 which should never really be reached in sensible scenarios)"
            },
            "XVariationTol": {
                "type": "d3m.metadata.hyperparams.Hyperparameter",
                "default": 1e-10,
                "structural_type": "float",
                "semantic_types": [
                    "https://metadata.datadrivendiscovery.org/types/ControlParameter"
                ],
                "description": "Points closer than this tolerance (after scaling the data to unit standard deviation) are considered the same the avoid splitting on numerical error.  Rare would want to change."
            },
            "RotForM": {
                "type": "d3m.metadata.hyperparams.Hyperparameter",
                "default": 3,
                "structural_type": "int",
                "semantic_types": [
                    "https://metadata.datadrivendiscovery.org/types/ControlParameter"
                ],
                "description": "Size of feature subsets taken for each rotation.  Default as per WEKA and rotation forest paper"
            },
            "RotForpS": {
                "type": "d3m.metadata.hyperparams.Hyperparameter",
                "default": 0.75,
                "structural_type": "float",
                "semantic_types": [
                    "https://metadata.datadrivendiscovery.org/types/ControlParameter"
                ],
                "description": "Proportion of points to subsample for calculating each PCA projection.  Default as per WEKA but not rotation forest paper"
            },
            "RotForpClassLeaveOut": {
                "type": "d3m.metadata.hyperparams.Hyperparameter",
                "default": 0.5,
                "structural_type": "float",
                "semantic_types": [
                    "https://metadata.datadrivendiscovery.org/types/ControlParameter"
                ],
                "description": "Proportion of classes to randomly eliminate for each PCA projection."
            },
            "minPointsForSplit": {
                "type": "d3m.metadata.hyperparams.Hyperparameter",
                "default": 6,
                "structural_type": "int",
                "semantic_types": [
                    "https://metadata.datadrivendiscovery.org/types/ControlParameter"
                ],
                "description": "Minimum points for parent node"
            },
            "dirIfEqual": {
                "type": "d3m.metadata.hyperparams.Enumeration",
                "default": "first",
                "structural_type": "str",
                "semantic_types": [
                    "https://metadata.datadrivendiscovery.org/types/ControlParameter"
                ],
                "description": " When multiple projection vectors can give equivalent split criterion scores, one can either choose which to use randomly ('rand') or take the first ('first') on the basis that the components are in decreasing order of correlation for CCA.",
                "values": [
                    "first",
                    "rand"
                ]
            },
            "bContinueProjBootDegenerate": {
                "type": "d3m.metadata.hyperparams.UniformBool",
                "default": true,
                "structural_type": "bool",
                "semantic_types": [
                    "https://metadata.datadrivendiscovery.org/types/ControlParameter"
                ],
                "description": "In the scenario where the projection bootstrap makes the local data pure or have no X variation, the algorithm can either set the node to be a leaf or resort to using the original data for the CCA"
            },
            "multiTaskGainCombination": {
                "type": "d3m.metadata.hyperparams.Enumeration",
                "default": "mean",
                "structural_type": "str",
                "semantic_types": [
                    "https://metadata.datadrivendiscovery.org/types/ControlParameter"
                ],
                "description": "Method for combining multiple gain metrics in multi-output tasks. Valid options are 'mean' (default) - average of the gains which for all the considered metrics is equal to the joint gain, or the 'max' gain on any of the tasks.",
                "values": [
                    "mean",
                    "max"
                ]
            },
            "missingValuesMethod": {
                "type": "d3m.metadata.hyperparams.Enumeration",
                "default": "random",
                "structural_type": "str",
                "semantic_types": [
                    "https://metadata.datadrivendiscovery.org/types/ControlParameter"
                ],
                "description": "Method for dealing with missing values.",
                "values": [
                    "mean",
                    "random"
                ]
            },
            "bUseOutputComponentsMSE": {
                "type": "d3m.metadata.hyperparams.UniformBool",
                "default": false,
                "structural_type": "bool",
                "semantic_types": [
                    "https://metadata.datadrivendiscovery.org/types/ControlParameter"
                ],
                "description": "If true, doing regression with multiple outputs and doing CCA projections."
            },
            "bRCCA": {
                "type": "d3m.metadata.hyperparams.UniformBool",
                "default": false,
                "structural_type": "bool",
                "semantic_types": [
                    "https://metadata.datadrivendiscovery.org/types/ControlParameter"
                ],
                "description": "Options that allow nonlinear features to be included in the CCA."
            },
            "rccaLengthScale": {
                "type": "d3m.metadata.hyperparams.Hyperparameter",
                "default": 0.1,
                "structural_type": "float",
                "semantic_types": [
                    "https://metadata.datadrivendiscovery.org/types/ControlParameter"
                ],
                "description": "Parameter for bRCCA, if set to True."
            },
            "rccaNFeatures": {
                "type": "d3m.metadata.hyperparams.Hyperparameter",
                "default": 50,
                "structural_type": "int",
                "semantic_types": [
                    "https://metadata.datadrivendiscovery.org/types/ControlParameter"
                ],
                "description": "Parameter for bRCCA, if set to True."
            },
            "rccaRegLambda": {
                "type": "d3m.metadata.hyperparams.Hyperparameter",
                "default": 0.001,
                "structural_type": "float",
                "semantic_types": [
                    "https://metadata.datadrivendiscovery.org/types/ControlParameter"
                ],
                "description": "Parameter for bRCCA, if set to True."
            },
            "rccaIncludeOriginal": {
                "type": "d3m.metadata.hyperparams.UniformBool",
                "default": false,
                "structural_type": "bool",
                "semantic_types": [
                    "https://metadata.datadrivendiscovery.org/types/ControlParameter"
                ],
                "description": "Parameter for bRCCA, if set to True."
            }
        },
        "arguments": {
            "hyperparams": {
                "type": "primitives.regCCFS.ccfsReg.Hyperparams",
                "kind": "RUNTIME"
            },
            "random_seed": {
                "type": "int",
                "kind": "RUNTIME",
                "default": 0
            },
            "timeout": {
                "type": "typing.Union[NoneType, float]",
                "kind": "RUNTIME",
                "default": null
            },
            "iterations": {
                "type": "typing.Union[NoneType, int]",
                "kind": "RUNTIME",
                "default": null
            },
            "produce_methods": {
                "type": "typing.Sequence[str]",
                "kind": "RUNTIME"
            },
            "inputs": {
                "type": "d3m.container.pandas.DataFrame",
                "kind": "PIPELINE"
            },
            "outputs": {
                "type": "d3m.container.pandas.DataFrame",
                "kind": "PIPELINE"
            },
            "params": {
                "type": "primitives.regCCFS.ccfsReg.Params",
                "kind": "RUNTIME"
            }
        },
        "class_methods": {},
        "instance_methods": {
            "__init__": {
                "kind": "OTHER",
                "arguments": [
                    "hyperparams",
                    "random_seed"
                ],
                "returns": "NoneType"
            },
            "fit": {
                "kind": "OTHER",
                "arguments": [
                    "timeout",
                    "iterations"
                ],
                "returns": "d3m.primitive_interfaces.base.CallResult[NoneType]",
                "description": "Inputs: ndarray of features\nReturns: None\n\nParameters\n----------\ntimeout : float\n    A maximum time this primitive should be fitting during this method call, in seconds.\niterations : int\n    How many of internal iterations should the primitive do.\n\nReturns\n-------\nCallResult[None]\n    A ``CallResult`` with ``None`` value."
            },
            "fit_multi_produce": {
                "kind": "OTHER",
                "arguments": [
                    "produce_methods",
                    "inputs",
                    "outputs",
                    "timeout",
                    "iterations"
                ],
                "returns": "d3m.primitive_interfaces.base.MultiCallResult",
                "description": "A method calling ``fit`` and after that multiple produce methods at once.\n\nThis method allows primitive author to implement an optimized version of both fitting\nand producing a primitive on same data.\n\nIf any additional method arguments are added to primitive's ``set_training_data`` method\nor produce method(s), or removed from them, they have to be added to or removed from this\nmethod as well. This method should accept an union of all arguments accepted by primitive's\n``set_training_data`` method and produce method(s) and then use them accordingly when\ncomputing results.\n\nThe default implementation of this method just calls first ``set_training_data`` method,\n``fit`` method, and all produce methods listed in ``produce_methods`` in order and is\npotentially inefficient.\n\nParameters\n----------\nproduce_methods : Sequence[str]\n    A list of names of produce methods to call.\ninputs : Inputs\n    The inputs given to ``set_training_data`` and all produce methods.\noutputs : Outputs\n    The outputs given to ``set_training_data``.\ntimeout : float\n    A maximum time this primitive should take to both fit the primitive and produce outputs\n    for all produce methods listed in ``produce_methods`` argument, in seconds.\niterations : int\n    How many of internal iterations should the primitive do for both fitting and producing\n    outputs of all produce methods.\n\nReturns\n-------\nMultiCallResult\n    A dict of values for each produce method wrapped inside ``MultiCallResult``."
            },
            "get_params": {
                "kind": "OTHER",
                "arguments": [],
                "returns": "primitives.regCCFS.ccfsReg.Params",
                "description": "Returns parameters of this primitive.\n\nParameters are all parameters of the primitive which can potentially change during a life-time of\na primitive. Parameters which cannot are passed through constructor.\n\nParameters should include all data which is necessary to create a new instance of this primitive\nbehaving exactly the same as this instance, when the new instance is created by passing the same\nparameters to the class constructor and calling ``set_params``.\n\nNo other arguments to the method are allowed (except for private arguments).\n\nReturns\n-------\nParams\n    An instance of parameters."
            },
            "multi_produce": {
                "kind": "OTHER",
                "arguments": [
                    "produce_methods",
                    "inputs",
                    "timeout",
                    "iterations"
                ],
                "returns": "d3m.primitive_interfaces.base.MultiCallResult",
                "description": "A method calling multiple produce methods at once.\n\nWhen a primitive has multiple produce methods it is common that they might compute the\nsame internal results for same inputs but return different representations of those results.\nIf caller is interested in multiple of those representations, calling multiple produce\nmethods might lead to recomputing same internal results multiple times. To address this,\nthis method allows primitive author to implement an optimized version which computes\ninternal results only once for multiple calls of produce methods, but return those different\nrepresentations.\n\nIf any additional method arguments are added to primitive's produce method(s), they have\nto be added to this method as well. This method should accept an union of all arguments\naccepted by primitive's produce method(s) and then use them accordingly when computing\nresults.\n\nThe default implementation of this method just calls all produce methods listed in\n``produce_methods`` in order and is potentially inefficient.\n\nIf primitive should have been fitted before calling this method, but it has not been,\nprimitive should raise a ``PrimitiveNotFittedError`` exception.\n\nParameters\n----------\nproduce_methods : Sequence[str]\n    A list of names of produce methods to call.\ninputs : Inputs\n    The inputs given to all produce methods.\ntimeout : float\n    A maximum time this primitive should take to produce outputs for all produce methods\n    listed in ``produce_methods`` argument, in seconds.\niterations : int\n    How many of internal iterations should the primitive do.\n\nReturns\n-------\nMultiCallResult\n    A dict of values for each produce method wrapped inside ``MultiCallResult``."
            },
            "produce": {
                "kind": "PRODUCE",
                "arguments": [
                    "inputs",
                    "iterations",
                    "timeout"
                ],
                "returns": "d3m.primitive_interfaces.base.CallResult[d3m.container.pandas.DataFrame]",
                "singleton": false,
                "inputs_across_samples": [],
                "description": "Inputs:  ndarray of features\nReturns: Pandas DataFrame Containing predictions\n\nParameters\n----------\ninputs : Inputs\n    The inputs of shape [num_inputs, ...].\ntimeout : float\n    A maximum time this primitive should take to produce outputs during this method call, in seconds.\niterations : int\n    How many of internal iterations should the primitive do.\n\nReturns\n-------\nCallResult[Outputs]\n    The outputs of shape [num_inputs, ...] wrapped inside ``CallResult``."
            },
            "set_params": {
                "kind": "OTHER",
                "arguments": [
                    "params"
                ],
                "returns": "NoneType",
                "description": "Sets parameters of this primitive.\n\nParameters are all parameters of the primitive which can potentially change during a life-time of\na primitive. Parameters which cannot are passed through constructor.\n\nNo other arguments to the method are allowed (except for private arguments).\n\nParameters\n----------\nparams : Params\n    An instance of parameters."
            },
            "set_training_data": {
                "kind": "OTHER",
                "arguments": [
                    "inputs",
                    "outputs"
                ],
                "returns": "NoneType",
                "description": "Sets current training data of this primitive.\n\nThis marks training data as changed even if new training data is the same as\nprevious training data.\n\nStandard sublasses in this package do not adhere to the Liskov substitution principle when\ninheriting this method because they do not necessary accept all arguments found in the base\nclass. This means that one has to inspect which arguments are accepted at runtime, or in\nother words, one has to inspect which exactly subclass a primitive implements, if\nyou are accepting a wider range of primitives. This relaxation is allowed only for\nstandard subclasses found in this package. Primitives themselves should not break\nthe Liskov substitution principle but should inherit from a suitable base class.\n\nParameters\n----------\ninputs : Inputs\n    The inputs.\noutputs : Outputs\n    The outputs."
            }
        },
        "class_attributes": {
            "logger": "logging.Logger",
            "metadata": "d3m.metadata.base.PrimitiveMetadata"
        },
        "instance_attributes": {
            "hyperparams": "d3m.metadata.hyperparams.Hyperparams",
            "random_seed": "int",
            "docker_containers": "typing.Dict[str, d3m.primitive_interfaces.base.DockerContainer]",
            "volumes": "typing.Dict[str, str]",
            "temporary_directory": "typing.Union[NoneType, str]"
        },
        "params": {}
    },
    "structural_type": "primitives.regCCFS.ccfsReg.CanonicalCorrelationForestsRegressionPrimitive",
    "digest": "22b3b78f839457283cd2e9e4a3a6d685f57dff7cb04e02dcee238db731a39637"
}
